…
``` r
Season <- tibble(key = c(1:12), Season = c(rep("Winter",2),rep("Spring",3),rep("Summer",3),rep("Fall",3),"Winter"))
flights2 <- flights %>% left_join(Season,by=c("month" = "key"))
flights2 <- flights2 %>% 
  mutate(on_time = if_else(condition = arr_delay<=0 & dep_delay<=0,
                           true = T,
                           false = F,
                           missing = F)) %>% 
  group_by(Season,hour) %>% 
  summarise(proportion_that_arrived_departed_on_time = mean(on_time), number_of_flights = n()) %>% 
  arrange(desc(proportion_that_arrived_departed_on_time))
flights2
```

    ## # A tibble: 77 × 4
    ## # Groups:   Season [4]
    ##    Season  hour proportion_that_arrived_departed_on_time number_of_flights
    ##    <chr>  <dbl>                                    <dbl>             <int>
    ##  1 Fall       7                                    0.717              5754
    ##  2 Fall       6                                    0.705              6149
    ##  3 Fall       5                                    0.699               455
    ##  4 Fall       8                                    0.675              7293
    ##  5 Fall       9                                    0.663              4863
    ##  6 Spring     7                                    0.648              5677
    ##  7 Fall      22                                    0.643               597
    ##  8 Spring     6                                    0.643              6716
    ##  9 Summer     7                                    0.638              5972
    ## 10 Fall      10                                    0.628              4403
    ## # … with 67 more rows
…
``` r
flights3 <- flights %>% left_join(airports, by = c("origin"="faa"))
origin_hour <- flights3 %>% 
  mutate(on_time = if_else(condition = arr_delay<=0 & dep_delay<=0,
                           true = T,
                           false = F,
                           missing = F), origin_name = name) %>% 
  group_by(origin_name,hour) %>% 
  summarise(proportion_that_arrived_departed_on_time = mean(on_time), number_of_flights = n()) %>% 
  arrange(desc(proportion_that_arrived_departed_on_time),desc(number_of_flights))
origin_hour
```

    ## # A tibble: 57 × 4
    ## # Groups:   origin_name [3]
    ##    origin_name          hour proportion_that_arrived_departed_on_time number_o…¹
    ##    <chr>               <dbl>                                    <dbl>      <int>
    ##  1 La Guardia              7                                    0.674       7137
    ##  2 John F Kennedy Intl     7                                    0.637       7026
    ##  3 La Guardia              6                                    0.634       8558
    ##  4 La Guardia              8                                    0.619       7167
    ##  5 La Guardia              9                                    0.610       7760
    ##  6 Newark Liberty Intl     5                                    0.609        895
    ##  7 John F Kennedy Intl     6                                    0.607       6260
    ##  8 John F Kennedy Intl     5                                    0.605        750
    ##  9 John F Kennedy Intl     8                                    0.602      10780
    ## 10 Newark Liberty Intl     6                                    0.595      11133
    ## # … with 47 more rows, and abbreviated variable name ¹​number_of_flights
…
``` r
flights4 <- flights %>% left_join(airlines, by = c("carrier"="carrier"))
airline_hour <- flights4 %>% 
  mutate(on_time = if_else(condition = arr_delay<=0 & dep_delay<=0,
                           true = T,
                           false = F,
                           missing = F), airline_name = name) %>% 
  group_by(airline_name,hour) %>% 
  summarise(proportion_that_arrived_departed_on_time = mean(on_time), number_of_flights = n()) %>% 
  arrange(desc(proportion_that_arrived_departed_on_time),desc(number_of_flights))
airline_hour
```

    ## # A tibble: 207 × 4
    ## # Groups:   airline_name [16]
    ##    airline_name            hour proportion_that_arrived_departed_on_time numbe…¹
    ##    <chr>                  <dbl>                                    <dbl>   <int>
    ##  1 Frontier Airlines Inc.     7                                    1           1
    ##  2 Mesa Airlines Inc.        18                                    1           1
    ##  3 US Airways Inc.            5                                    0.748     341
    ##  4 Delta Air Lines Inc.       7                                    0.706    3787
    ##  5 US Airways Inc.            7                                    0.701     912
    ##  6 Endeavor Air Inc.          7                                    0.696     628
    ##  7 Alaska Airlines Inc.       7                                    0.693     349
    ##  8 Delta Air Lines Inc.      23                                    0.692      13
    ##  9 American Airlines Inc.     7                                    0.690    3348
    ## 10 Mesa Airlines Inc.        19                                    0.684      19
    ## # … with 197 more rows, and abbreviated variable name ¹​number_of_flights
…
